…
**The transit dataset contains 1868 observation and 19 variables
including: “line”, “station_name”, “station_latitude”,
“station_longitude”, “route1:11”, “entry”, “vending” “entrance_type”,
“ada”**

**For the data cleaning, I did the data name cleaning, dropped the
unnecessary variables and convert the character variable “entry” to
logical variable. The data is not yet tidied because there are
repeatative observations in the dataframe**

``` r
distinct (transit_data,line, station_name)
```

    ## # A tibble: 465 × 2
    ##    line     station_name            
    ##    <chr>    <chr>                   
    ##  1 4 Avenue 25th St                 
    ##  2 4 Avenue 36th St                 
    ##  3 4 Avenue 45th St                 
    ##  4 4 Avenue 53rd St                 
    ##  5 4 Avenue 59th St                 
    ##  6 4 Avenue 77th St                 
    ##  7 4 Avenue 86th St                 
    ##  8 4 Avenue 95th St                 
    ##  9 4 Avenue 9th St                  
    ## 10 4 Avenue Atlantic Av-Barclays Ctr
    ## # … with 455 more rows

**There are 465 distinct stations**

``` r
filter(transit_data, ada==TRUE)
```

    ## # A tibble: 468 × 19
    ##    line        stati…¹ stati…² stati…³ route1 route2 route3 route4 route5 route6
    ##    <chr>       <chr>     <dbl>   <dbl> <chr>  <chr>  <chr>  <chr>  <chr>  <chr> 
    ##  1 4 Avenue    Atlant…    40.7   -74.0 B      Q      D      N      R      2     
    ##  2 4 Avenue    DeKalb…    40.7   -74.0 B      Q      R      <NA>   <NA>   <NA>  
    ##  3 4 Avenue    DeKalb…    40.7   -74.0 B      Q      R      <NA>   <NA>   <NA>  
    ##  4 4 Avenue    DeKalb…    40.7   -74.0 B      Q      R      <NA>   <NA>   <NA>  
    ##  5 4 Avenue    DeKalb…    40.7   -74.0 B      Q      R      <NA>   <NA>   <NA>  
    ##  6 4 Avenue    DeKalb…    40.7   -74.0 B      Q      R      <NA>   <NA>   <NA>  
    ##  7 4 Avenue    DeKalb…    40.7   -74.0 B      Q      R      <NA>   <NA>   <NA>  
    ##  8 4 Avenue    Pacifi…    40.7   -74.0 B      Q      D      N      R      2     
    ##  9 4 Avenue    Pacifi…    40.7   -74.0 B      Q      D      N      R      2     
    ## 10 42nd St Sh… Grand …    40.8   -74.0 GS     4      5      6      7      <NA>  
    ## # … with 458 more rows, 9 more variables: route7 <chr>, route8 <chr>,
    ## #   route9 <chr>, route10 <chr>, route11 <chr>, entry <lgl>, vending <chr>,
    ## #   entrance_type <chr>, ada <lgl>, and abbreviated variable names
    ## #   ¹​station_name, ²​station_latitude, ³​station_longitude

**There are 458 stations ADA compliant**

``` r
filter(transit_data, vending=="NO" & entry==TRUE)
```

    ## # A tibble: 69 × 19
    ##    line     station_…¹ stati…² stati…³ route1 route2 route3 route4 route5 route6
    ##    <chr>    <chr>        <dbl>   <dbl> <chr>  <chr>  <chr>  <chr>  <chr>  <chr> 
    ##  1 4 Avenue 9th St        40.7   -74.0 F      G      R      <NA>   <NA>   <NA>  
    ##  2 6 Avenue 7th Av        40.7   -74.0 F      <NA>   <NA>   <NA>   <NA>   <NA>  
    ##  3 6 Avenue 7th Av        40.7   -74.0 F      <NA>   <NA>   <NA>   <NA>   <NA>  
    ##  4 6 Avenue 7th Av        40.7   -74.0 F      <NA>   <NA>   <NA>   <NA>   <NA>  
    ##  5 6 Avenue 7th Av        40.7   -74.0 F      <NA>   <NA>   <NA>   <NA>   <NA>  
    ##  6 6 Avenue 7th Av        40.7   -74.0 F      <NA>   <NA>   <NA>   <NA>   <NA>  
    ##  7 6 Avenue 7th Av        40.7   -74.0 F      <NA>   <NA>   <NA>   <NA>   <NA>  
    ##  8 6 Avenue 7th Av        40.7   -74.0 F      <NA>   <NA>   <NA>   <NA>   <NA>  
    ##  9 6 Avenue 7th Av        40.7   -74.0 F      <NA>   <NA>   <NA>   <NA>   <NA>  
    ## 10 6 Avenue Bergen St     40.7   -74.0 F      G      <NA>   <NA>   <NA>   <NA>  
    ## # … with 59 more rows, 9 more variables: route7 <chr>, route8 <chr>,
    ## #   route9 <chr>, route10 <chr>, route11 <chr>, entry <lgl>, vending <chr>,
    ## #   entrance_type <chr>, ada <lgl>, and abbreviated variable names
    ## #   ¹​station_name, ²​station_latitude, ³​station_longitude
**59 out of 465 of station entrances / exits without vending allow
entrance**

``` r
transit_data %>% 
  pivot_longer(
    route1:route11,
    names_to = "route_num",
    values_to = "route") %>% 
  filter(route == "A") %>% 
  select(station_name, line) %>% 
  distinct
```

    ## # A tibble: 60 × 2
    ##    station_name                  line           
    ##    <chr>                         <chr>          
    ##  1 Times Square                  42nd St Shuttle
    ##  2 125th St                      8 Avenue       
    ##  3 145th St                      8 Avenue       
    ##  4 14th St                       8 Avenue       
    ##  5 168th St - Washington Heights 8 Avenue       
    ##  6 175th St                      8 Avenue       
    ##  7 181st St                      8 Avenue       
    ##  8 190th St                      8 Avenue       
    ##  9 34th St                       8 Avenue       
    ## 10 42nd St                       8 Avenue       
    ## # … with 50 more rows
…
